[Ivy]
178E9B08CA67CA44 7.5.0 #module
>Proto >Proto Collection #zClass
CD0 ConfirmationUUID Big #zClass
CD0 B #cInfo
CD0 #process
CD0 @AnnotationInP-0n ai ai #zField
CD0 @TextInP .type .type #zField
CD0 @TextInP .processKind .processKind #zField
CD0 @TextInP .xml .xml #zField
CD0 @TextInP .responsibility .responsibility #zField
CD0 @StartRequest f0 '' #zField
CD0 @EndTask f1 '' #zField
CD0 @UserDialog f3 '' #zField
CD0 @PushWFArc f2 '' #zField
CD0 @PushWFArc f4 '' #zField
>Proto CD0 CD0 ConfirmationUUID #zField
CD0 f0 outLink start.ivp #txt
CD0 f0 inParamDecl '<> param;' #txt
CD0 f0 requestEnabled true #txt
CD0 f0 triggerEnabled false #txt
CD0 f0 callSignature start() #txt
CD0 f0 caseData businessCase.attach=true #txt
CD0 f0 @C|.xml '<?xml version="1.0" encoding="UTF-8" standalone="yes"?>
<elementInfo>
    <language>
        <name>start.ivp</name>
    </language>
</elementInfo>
' #txt
CD0 f0 @C|.responsibility Everybody #txt
CD0 f0 67 59 26 26 14 -27 #rect
CD0 f0 @|StartRequestIcon #fIcon
CD0 f1 283 59 26 26 14 0 #rect
CD0 f1 @|EndIcon #fIcon
CD0 f3 dialogId trainning.ConfirmUUID #txt
CD0 f3 startMethod start() #txt
CD0 f3 requestActionDecl '<> param;' #txt
CD0 f3 @C|.xml '<?xml version="1.0" encoding="UTF-8" standalone="yes"?>
<elementInfo>
    <language>
        <name>ConfirmUUID</name>
    </language>
</elementInfo>
' #txt
CD0 f3 166 60 36 24 -1 -32 #rect
CD0 f3 @|UserDialogIcon #fIcon
CD0 f2 202 72 283 72 #arcP
CD0 f4 93 72 166 72 #arcP
>Proto CD0 .type trainning.Data #txt
>Proto CD0 .processKind NORMAL #txt
>Proto CD0 0 0 32 24 18 0 #rect
>Proto CD0 @|BIcon #fIcon
CD0 f3 mainOut f2 tail #connect
CD0 f2 head f1 mainIn #connect
CD0 f0 mainOut f4 tail #connect
CD0 f4 head f3 mainIn #connect
