[Ivy]
178E8640D71749C3 7.5.0 #module
>Proto >Proto Collection #zClass
Is0 IndividualDialogComponentProcess Big #zClass
Is0 RD #cInfo
Is0 #process
Is0 @AnnotationInP-0n ai ai #zField
Is0 @TextInP .type .type #zField
Is0 @TextInP .processKind .processKind #zField
Is0 @TextInP .xml .xml #zField
Is0 @TextInP .responsibility .responsibility #zField
Is0 @UdInit f0 '' #zField
Is0 @UdProcessEnd f1 '' #zField
Is0 @PushWFArc f2 '' #zField
Is0 @UdEvent f3 '' #zField
Is0 @UdExitEnd f4 '' #zField
Is0 @PushWFArc f5 '' #zField
>Proto Is0 Is0 IndividualDialogComponentProcess #zField
Is0 f0 guid 178E8640D751989D #txt
Is0 f0 method start() #txt
Is0 f0 inParameterDecl '<> param;' #txt
Is0 f0 outParameterDecl '<> result;' #txt
Is0 f0 @C|.xml '<?xml version="1.0" encoding="UTF-8" standalone="yes"?>
<elementInfo>
    <language>
        <name>start()</name>
    </language>
</elementInfo>
' #txt
Is0 f0 85 53 22 22 14 0 #rect
Is0 f0 @|UdInitIcon #fIcon
Is0 f1 85 149 22 22 14 0 #rect
Is0 f1 @|UdProcessEndIcon #fIcon
Is0 f2 96 75 96 149 #arcP
Is0 f3 guid 178E8640D84DDA21 #txt
Is0 f3 actionTable 'out=in;
' #txt
Is0 f3 @C|.xml '<?xml version="1.0" encoding="UTF-8" standalone="yes"?>
<elementInfo>
    <language>
        <name>close</name>
    </language>
</elementInfo>
' #txt
Is0 f3 213 53 22 22 14 0 #rect
Is0 f3 @|UdEventIcon #fIcon
Is0 f4 213 149 22 22 14 0 #rect
Is0 f4 @|UdExitEndIcon #fIcon
Is0 f5 224 75 224 149 #arcP
>Proto Is0 .type trainning.IndividualDialogComponent.IndividualDialogComponentData #txt
>Proto Is0 .processKind HTML_DIALOG #txt
>Proto Is0 -8 -8 16 16 16 26 #rect
>Proto Is0 '' #fIcon
Is0 f0 mainOut f2 tail #connect
Is0 f2 head f1 mainIn #connect
Is0 f3 mainOut f5 tail #connect
Is0 f5 head f4 mainIn #connect
